%!PS-Adobe-3.0
%%Creator: gEDA gschem 20081231
%%CreationDate: Tue Apr 21 03:45:34 2009
%%Title: /data/user/stevencrc/documents/pic-projects/remote-control/schematic/universal-remote-control
%%Author: (null)
%%BoundingBox: 0 0 595 841
%%Orientation: Landscape
%%Pages: 1
%%Endcomments
%%BeginProlog
% Prolog for gEDA, define all the functions needed for rendering
% schematics on Postscript devices


% Draw a line from the second coordinate to the first
% x2 y2 x1 y1 width line -
/line {
    setlinewidth
    % pop off first element and moveto
    moveto
    % pop off remaining elements and draw a line segment
    lineto
    % draw it
    stroke
} bind def


% Draw a dot
% x y r dot -
/dot {
    0 360 arc fill
} bind def

% Draw a dot-dashed line, a bunch of lined segments,
% if the array element only has length two, draw a dot.
% [ [x2 y2 x1 y1] [x4 y4 x3 y3] [x5 y5] ... ] width dashed -
/width 0 def
/dashed {
    dup 2.0 div /width exch def
    setlinewidth
    % pop off each line segment and draw it as a dot or as a line
    {
	aload length 2 gt
	{ moveto lineto stroke}
	{ width dot } ifelse
    } forall
} bind def

% Draw an arc segment
% x y r ang1 ang2 width darc -
/darc {
    setlinewidth
    arc stroke
} bind def

% Draw a series of arc segment bits, if the array element only has a single
% element in it, draw a dot.
% [ [sa1 ea1] [sa2 ea2] ... ] x y r width dashedarc -
/x 0 def
/y 0 def
/dashedarc {
    dup /width exch def
    setlinewidth
    /r exch def  
    /y exch def
    /x exch def
    { aload length 1 gt
	{
	    % this element had two angles in it
	    % extract start and stop angles
	    x y r   % drop x y and r onto stack
		    % at this point we have: sa ea x y r
		    % we need                      x y r sa ea
		    % so..
	    5 -2 roll
	    % and add it to the current path, and draw it
	    arc stroke
	} {
	    % this element only had one angle in it, place a
	    % filled dot at the appropriate place
	    % compute center point of the arc using the angle
	    % that is on the top of the stack
	    dup   		% angle angle
	    cos r mul x add 	% angle x
	    exch		% x angle
	    sin r mul y add	% x y
	    width		% x y width/2
	    dot			% draw the dot
	} ifelse
    } forall

    % Now draw it
    stroke
} bind def

% Draw a box
% width height x y linethickness box -
/box {
    setlinewidth
    moveto
    exch dup 0 rlineto	 % w h, h w w 0      -- Draw bottom line
    exch 0 exch rlineto	 % h w, w h 0, w 0 h -- Draw right line 
    neg 0 rlineto	 % w, -w 0           -- Draw Top line
    closepath		 % finish and draw it
    stroke
} bind def			     

% Draw a filled box
% width height x y fbox -
/fbox {
    moveto
    exch dup 0 rlineto	
    exch 0 exch rlineto	
    neg 0 rlineto		
    closepath			
    fill			
} bind def

% Font reincoding utilities

% ISOLatin1Encoding, extended with remaining uncoded glyphs
/ISOLatin1Extended [
    /.notdef /Lslash /lslash /OE /oe /Scaron /scaron /Zcaron /zcaron
    /Ydieresis /trademark /bullet /dagger /daggerdbl /ellipsis /emdash
    /endash /fi /fl /florin /fraction /guilsinglleft /guilsinglright
    /perthousand /quotedblbase /quotedblleft /quotedblright
    /quotesinglbase /quotesingle /.notdef /.notdef /.notdef /space
    /exclam /quotedbl /numbersign /dollar /percent /ampersand
    /quoteright /parenleft /parenright /asterisk /plus /comma /minus
    /period /slash /zero /one /two /three /four /five /six /seven /eight
    /nine /colon /semicolon /less /equal /greater /question /at /A /B /C
    /D /E /F /G /H /I /J /K /L /M /N /O /P /Q /R /S /T /U /V /W /X /Y /Z
    /bracketleft /backslash /bracketright /asciicircum /underscore
    /quoteleft /a /b /c /d /e /f /g /h /i /j /k /l /m /n /o /p /q /r /s
    /t /u /v /w /x /y /z /braceleft /bar /braceright /asciitilde
    /.notdef /.notdef /.notdef /.notdef /.notdef /.notdef /.notdef
    /.notdef /.notdef /.notdef /.notdef /.notdef /.notdef /.notdef
    /.notdef /.notdef /.notdef /dotlessi /grave /acute /circumflex
    /tilde /macron /breve /dotaccent /dieresis /.notdef /ring /cedilla
    /.notdef /hungarumlaut /ogonek /caron /space /exclamdown /cent
    /sterling /currency /yen /brokenbar /section /dieresis /copyright
    /ordfeminine /guillemotleft /logicalnot /hyphen /registered /macron
    /degree /plusminus /twosuperior /threesuperior /acute /mu /paragraph
    /periodcentered /cedilla /onesuperior /ordmasculine /guillemotright
    /onequarter /onehalf /threequarters /questiondown /Agrave /Aacute
    /Acircumflex /Atilde /Adieresis /Aring /AE /Ccedilla /Egrave /Eacute
    /Ecircumflex /Edieresis /Igrave /Iacute /Icircumflex /Idieresis /Eth
    /Ntilde /Ograve /Oacute /Ocircumflex /Otilde /Odieresis /multiply
    /Oslash /Ugrave /Uacute /Ucircumflex /Udieresis /Yacute /Thorn
    /germandbls /agrave /aacute /acircumflex /atilde /adieresis /aring
    /ae /ccedilla /egrave /eacute /ecircumflex /edieresis /igrave
    /iacute /icircumflex /idieresis /eth /ntilde /ograve /oacute
    /ocircumflex /otilde /odieresis /divide /oslash /ugrave /uacute
    /ucircumflex /udieresis /yacute /thorn /ydieresis
] def

% `new-font-name' `encoding-vector' `old-font-name' RE -
/RE {
    findfont
    dup maxlength dict begin {
        1 index /FID ne { def } { pop pop } ifelse
    } forall
    /Encoding exch def
    dup /FontName exch def
    currentdict end definefont pop
} bind def

% Text handling functions, select the font and scale it, then we need
% only to apply the appropriate transformations to get the text
% justified into the right spots.  The bad thing here is that we don't
% do any kerning, so the output may look a bit strange.

% compute the height of one character and return lly and ury
% (char) charheight lly ury
/charheight {
    gsave			% push graphics state
	newpath			% clear current path
	0 0 moveto		% Set current point
	false charpath		% get path
	flattenpath		% flatten path
	pathbbox		% stack = llx lly urx ury
	exch pop		% stack = llx lly ury
	3 -1 roll pop		% stack = lly ury
    grestore			% pop graphics state
} bind def

% compute the height of a string, one character at a time
% (string) stringheight lly ury
/lly 0.0 def
/ury 0.0 def

/stringheight {
    /lly 0.0 def			% initial value of heightmin
    /ury 0.0 def			% initial value of heightmax
    {				% work through string
	( ) dup 0 4 -1 roll put	% create one character string
	charheight		% measure it's height
	dup ury gt {		% if ury gt heightmax
	    /ury exch def	% update with new value
	} {
	    pop			% else discard ury
	} ifelse
	dup lly lt {		% if lly lt heightmin
	    /lly exch def	% update with new value
	} {
	    pop			% else discard lly
	} ifelse
    } forall
    lly ury			% Return the results
} bind def

% calculate the string width taking into account the escapes.
/mystrx 0.0 def
/mystry 0.0 def
/mystresc false def

/mystringwidth {
    /mystrx 0.0 def
    /mystry 0.0 def
    /mystresc false def
    {				% work through string
	% did we process the escape character last?
	mystresc {
	    % last character was escape
	    % handle the escape
	    % is it an _ = 95?
	    dup 95 eq {
		pop  % we don't need the character anymore
		% toggle drawing overbars
		0.0 0.0 % make it like it never happened...
	    } {
		% otherwise measure the character 
		(\\ ) dup 1 4 -1 roll put % count a \ and the character
		stringwidth
	    } ifelse
	    % and reset the flag
	    /mystresc false def
	} {
	    % last character was not escape
	    % is this escape
	    dup 92 eq {
		% yes, escape character, set flag
		/mystresc true def
		pop % drop character
		0.0 0.0 % make like this character has no width and height
	    } {
		( ) dup 0 4 -1 roll put	% create one character string
		stringwidth		% measure it's height/width
	    } ifelse
	} ifelse
	% accumulate x and y movements
	mystry add /mystry exch def
	mystrx add /mystrx exch def
    } forall
    mystrx mystry % drop results on stack
} bind def

% Render a string with overbars
%
/escaped false def
/drawoverbar false def
/fontsize 0.0 def

% Show a string, with an overbar over it
% string charshow -
/charshow {
    drawoverbar {
	% draw an overbar for the character
	gsave
	fontsize 10.0 div setlinewidth
	0 fontsize rmoveto  % move to (0,overbarheight) 
	dup stringwidth pop 0 rlineto % draw line to 
	stroke
	grestore
    } if
    show
} bind def

/overbarshow {
    /drawoverbar false def      % start by not drawing overbars
    {				% work through string
	escaped {
	    % the last character was the escape
	    % handle the escape
	    % is it an _ = 95?
	    dup 95 eq {
		pop  % we don't need the character anymore
		% toggle drawing overbars
		/drawoverbar drawoverbar not def
	    } {
		% otherwise render the character 
		(\\ ) dup 1 4 -1 roll put % draw a \ and the character
		charshow                      % render the string
	    } ifelse
	    % and reset the flag
	    /escaped false def
	} {
	    % check for escape character \ = 92
	    dup 92 eq {
		% yes, escape character, set flag
		/escaped true def
		pop % drop character
	    } {
		% no, reset flag and draw character
		( ) dup 0 4 -1 roll put	% create one character string
		charshow
	    } ifelse
	} ifelse
    } forall
} bind def
% 
% hcenter rjustify vcenter vjustify spacing [(line1) (line2) ... ] rot x y size text -
/stringw 0.0 def
/stringh 0.0 def
/spacing 0.0 def
/strings [ ] def
/stringtxt ( ) def
/stringcount 0 def
/rot 0.0 def

/text {
    gsave	        % save state for later

    dup /fontsize exch def  % save font size for corrections later
    % do font selection 
    /gEDAFont findfont
    exch scalefont
    setfont

    % set up coordinates
    translate           % move origin to given point
    rotate		% rotate so that text is drawn
    0 0 moveto
    dup length /stringcount exch def			% Get number of strings
    /strings exch def     				% save strings
    /spacing exch def
    % do we have more than 1 string to render?
    stringcount 1 eq {
	/stringtxt strings aload pop def		% get the string 
	/stringw stringtxt mystringwidth pop neg def	% get the -width
	/stringh stringtxt stringheight exch pop neg def% get the -height

	% First do vertical calculations
	% hcenter rjustify vcenter vjustify 
	% vertical justification
	{ 0 stringh rmoveto } if 
	% vertical center
	{ 0 stringh 0.3571425 mul rmoveto } if  % not 0.5, so that
						% it looks nicer
	% Then do horizontal calculations
	% right justify
	{ stringw 0 rmoveto } if
	% center
	{ stringw 2.0 div 0 rmoveto } if
	% Draw the text
	stringtxt overbarshow
    } {
	% More than one line, compute bounding box for the text

	% vertical height, don't use the actual hieght of the characters
	% assume that the user wants to make the baselines line up with two
	% text boxes placed side by side
	/stringh stringcount spacing mul neg def
	% Now figure out horizontal size, this amounts to keeping track
	% of the longest string
	/stringw 0.0 def
	strings {
	    mystringwidth pop
	    dup stringw gt {
		/stringw exch def
	    } {
		pop
	    } ifelse
	} forall
	/stringw stringw neg def 	% get the -width
	
	% First do vertical calculations
	% hcenter rjustify vcenter vjustify 
	% vertical justification
	{ 0 stringh fontsize add rmoveto } if 
	% vertical center
	{ 0 stringh 0.5 mul rmoveto } if 
	% Then do horizontal calculations
	% right justify
	{ stringw 0 rmoveto } if
	% center
	{ stringw 2.0 div 0 rmoveto } if
	% now move up to the first line and begin rendering
	0 stringcount 1 sub spacing mul rmoveto
	strings {
	    gsave		% Save starting point
	    overbarshow		% render the text
	    grestore
	    0 spacing neg rmoveto
	} forall
    } ifelse
    grestore 	% Restore old state
} bind def


%%EndProlog
%%Page: 1 1
/gEDAFont ISOLatin1Extended /Helvetica RE
2 setlinecap
0.072000 0.072000 scale
7573 531 translate 90 rotate
0.625134 0.625134 scale
-40000 -40000 translate
gsave
40000 40000 57000 40000 10 line
57000 40000 57000 51000 10 line
57000 51000 40000 51000 10 line
40000 51000 40000 40000 10 line
52900 40600 52900 40000 10 line
gsave
false false false false 208.000000 [(FILE:) ] 0 49500 40400 111.111115 text
grestore
gsave
false false false false 208.000000 [(REVISION:) ] 0 53000 40400 111.111115 text
grestore
gsave
false false false false 208.000000 [(DRAWN BY: ) ] 0 53000 40100 111.111115 text
grestore
gsave
false false false false 208.000000 [(PAGE) ] 0 49500 40100 111.111115 text
grestore
gsave
false false false false 208.000000 [(OF) ] 0 51200 40100 111.111115 text
grestore
gsave
false false false false 208.000000 [(TITLE) ] 0 49500 40700 111.111115 text
grestore
49400 40000 57000 40000 10 line
57000 40000 57000 41400 10 line
57000 41400 49400 41400 10 line
49400 41400 49400 40000 10 line
49400 40600 57000 40600 10 line
grestore
gsave
48100 44900 51100 44900 10 line
51100 44900 51100 47000 10 line
51100 47000 48100 47000 10 line
48100 47000 48100 44900 10 line
48400 44600 48400 44900 10 line
gsave
false false false false 208.000000 [(1) ] 90 48300 44700 111.111115 text
grestore
gsave
false false false false 208.000000 [(RA2) ] 90 48400 45000 111.111115 text
grestore
48700 44600 48700 44900 10 line
gsave
false false false false 208.000000 [(2) ] 90 48600 44700 111.111115 text
grestore
gsave
false false false false 208.000000 [(RA3) ] 90 48700 45000 111.111115 text
grestore
49000 44600 49000 44900 10 line
gsave
false false false false 208.000000 [(3) ] 90 48900 44700 111.111115 text
grestore
gsave
false false false false 208.000000 [(RA4) ] 90 49000 45000 111.111115 text
grestore
49300 44600 49300 44900 10 line
gsave
false false false false 208.000000 [(4) ] 90 49200 44700 111.111115 text
grestore
gsave
false false false false 208.000000 [(MCLR/RA5) ] 90 49300 45000 111.111115 text
grestore
49600 44600 49600 44900 10 line
gsave
false false false false 208.000000 [(5) ] 90 49500 44700 111.111115 text
grestore
gsave
false false false false 208.000000 [(Vss) ] 90 49600 45000 111.111115 text
grestore
49900 44600 49900 44900 10 line
gsave
false false false false 208.000000 [(6) ] 90 49800 44700 111.111115 text
grestore
gsave
false false false false 208.000000 [(RB0) ] 90 49900 45000 111.111115 text
grestore
50200 44600 50200 44900 10 line
gsave
false false false false 208.000000 [(7) ] 90 50100 44700 111.111115 text
grestore
gsave
false false false false 208.000000 [(RB1) ] 90 50200 45000 111.111115 text
grestore
50500 44600 50500 44900 10 line
gsave
false false false false 208.000000 [(8) ] 90 50400 44700 111.111115 text
grestore
gsave
false false false false 208.000000 [(RB2) ] 90 50500 45000 111.111115 text
grestore
50800 44600 50800 44900 10 line
gsave
false false false false 208.000000 [(9) ] 90 50700 44700 111.111115 text
grestore
gsave
false false false false 208.000000 [(RB3) ] 90 50800 45000 111.111115 text
grestore
48400 47300 48400 47000 10 line
gsave
false false false false 208.000000 [(18) ] 90 48300 47100 111.111115 text
grestore
gsave
false false false false 208.000000 [(RA1) ] 90 48400 46600 111.111115 text
grestore
48700 47300 48700 47000 10 line
gsave
false false false false 208.000000 [(17) ] 90 48600 47100 111.111115 text
grestore
gsave
false false false false 208.000000 [(RA0) ] 90 48700 46600 111.111115 text
grestore
49000 47300 49000 47000 10 line
gsave
false false false false 208.000000 [(16) ] 90 48900 47100 111.111115 text
grestore
gsave
false false false false 208.000000 [(RA7/OSC1) ] 90 49000 46200 111.111115 text
grestore
49300 47300 49300 47000 10 line
gsave
false false false false 208.000000 [(15) ] 90 49200 47100 111.111115 text
grestore
gsave
false false false false 208.000000 [(RA6/OSC2) ] 90 49300 46100 111.111115 text
grestore
49600 47300 49600 47000 10 line
gsave
false false false false 208.000000 [(14) ] 90 49500 47100 111.111115 text
grestore
gsave
false false false false 208.000000 [(Vdd) ] 90 49600 46600 111.111115 text
grestore
49900 47300 49900 47000 10 line
gsave
false false false false 208.000000 [(13) ] 90 49800 47100 111.111115 text
grestore
gsave
false false false false 208.000000 [(RB7) ] 90 49900 46600 111.111115 text
grestore
50200 47300 50200 47000 10 line
gsave
false false false false 208.000000 [(12) ] 90 50100 47100 111.111115 text
grestore
gsave
false false false false 208.000000 [(RB6) ] 90 50200 46600 111.111115 text
grestore
50500 47300 50500 47000 10 line
gsave
false false false false 208.000000 [(11) ] 90 50400 47100 111.111115 text
grestore
gsave
false false false false 208.000000 [(RB5) ] 90 50500 46600 111.111115 text
grestore
50800 47300 50800 47000 10 line
gsave
false false false false 208.000000 [(10) ] 90 50700 47100 111.111115 text
grestore
gsave
false false false false 208.000000 [(RB4) ] 90 50800 46600 111.111115 text
grestore
grestore
gsave
false false false false 208.000000 [(CORE \(PIC16F628A\)) ] 90 48000 44900 111.111115 text
grestore
gsave
gsave
false false false false 208.000000 [(IN) ] 0 42500 50200 111.111115 text
grestore
gsave
false false false false 208.000000 [(OUT) ] 0 43048 50200 111.111115 text
grestore
gsave
false false false false 208.000000 [(7805) ] 0 43000 49700 111.111115 text
grestore
42400 49900 43400 49900 10 line
43400 49900 43400 50500 10 line
43400 50500 42400 50500 10 line
42400 50500 42400 49900 10 line
gsave
false false false false 208.000000 [(GND) ] 0 42756 50001 111.111115 text
grestore
42400 50200 42100 50200 10 line
gsave
false false false false 208.000000 [(1) ] 0 42200 50250 111.111115 text
grestore
42900 49600 42900 49900 10 line
gsave
false false false false 208.000000 [(2) ] 0 42800 49700 111.111115 text
grestore
43400 50200 43700 50200 10 line
gsave
false false false false 208.000000 [(3) ] 0 43530 50250 111.111115 text
grestore
grestore
gsave
false true false false 260.000000 [(POWER \(LM7805\)) ] 0 43500 50600 138.888885 text
grestore
gsave
48800 42600 48800 42400 10 line
48800 41700 48800 41900 10 line
48900 42200 48800 42100 10 line
48800 42100 48700 42200 10 line
48900 42200 48700 42200 10 line
48900 42100 48700 42100 10 line
48800 42100 48800 41900 10 line
48800 42200 48800 42400 10 line
48940 42170 49040 42070 10 line
49040 42070 49010 42120 10 line
49040 42070 48990 42100 10 line
48940 42100 49040 42000 10 line
49040 42000 49010 42050 10 line
49040 42000 48990 42030 10 line
grestore
gsave
false false false false 260.000000 [(D5 \(TYPE2\)) ] 270 49000 41800 138.888885 text
grestore
gsave
48300 42600 48300 42400 10 line
48300 41700 48300 41900 10 line
48400 42200 48300 42100 10 line
48300 42100 48200 42200 10 line
48400 42200 48200 42200 10 line
48400 42100 48200 42100 10 line
48300 42100 48300 41900 10 line
48300 42200 48300 42400 10 line
48440 42170 48540 42070 10 line
48540 42070 48510 42120 10 line
48540 42070 48490 42100 10 line
48440 42100 48540 42000 10 line
48540 42000 48510 42050 10 line
48540 42000 48490 42030 10 line
grestore
gsave
false false false false 260.000000 [(D4 \(TYPE1\)) ] 270 48500 41800 138.888885 text
grestore
gsave
54500 48900 54700 48900 10 line
55400 48900 55200 48900 10 line
54900 49000 55000 48900 10 line
55000 48900 54900 48800 10 line
54900 49000 54900 48800 10 line
55000 49000 55000 48800 10 line
55000 48900 55200 48900 10 line
54900 48900 54700 48900 10 line
54930 49040 55030 49140 10 line
55030 49140 54980 49110 10 line
55030 49140 55000 49090 10 line
55000 49040 55100 49140 10 line
55100 49140 55050 49110 10 line
55100 49140 55070 49090 10 line
grestore
gsave
false false false false 260.000000 [(D12 \(IR\)) ] 0 55300 49100 138.888885 text
grestore
gsave
47600 43800 47600 43650 10 line
gsave
false false false false 208.000000 [(1) ] 270 47650 43750 111.111115 text
grestore
47600 42950 47600 42800 10 line
gsave
false false false false 208.000000 [(2) ] 270 47650 42900 111.111115 text
grestore
47600 43650 47600 43475 10 line
47600 42950 47600 43125 10 line
47685 43500 47685 43100 10 line
47600 43461 14 0 360 10 darc
47600 43138 14 0 360 10 darc
47855 43330 47855 43280 10 line
47805 43330 47805 43280 10 line
47805 43330 47755 43305 10 line
47805 43280 47755 43305 10 line
47805 43305 47855 43305 10 line
47755 43305 47686 43305 10 line
grestore
gsave
false false false false 260.000000 [(SW5 \(SET\)) ] 270 47900 43400 138.888885 text
grestore
gsave
46900 47300 46900 47150 10 line
gsave
false false false false 208.000000 [(1) ] 270 46950 47250 111.111115 text
grestore
46900 46450 46900 46300 10 line
gsave
false false false false 208.000000 [(2) ] 270 46950 46400 111.111115 text
grestore
46900 47150 46900 46975 10 line
46900 46450 46900 46625 10 line
46985 47000 46985 46600 10 line
46900 46961 14 0 360 10 darc
46900 46638 14 0 360 10 darc
47155 46830 47155 46780 10 line
47105 46830 47105 46780 10 line
47105 46830 47055 46805 10 line
47105 46780 47055 46805 10 line
47105 46805 47155 46805 10 line
47055 46805 46986 46805 10 line
grestore
gsave
false false false false 260.000000 [(SW2 \(PUSH\)) ] 270 47200 46900 138.888885 text
grestore
gsave
49800 49100 49950 49100 10 line
gsave
false false false false 208.000000 [(1) ] 0 49850 49150 111.111115 text
grestore
50650 49100 50800 49100 10 line
gsave
false false false false 208.000000 [(2) ] 0 50700 49150 111.111115 text
grestore
49950 49100 50125 49100 10 line
50650 49100 50475 49100 10 line
50100 49185 50500 49185 10 line
50139 49100 14 0 360 10 darc
50462 49100 14 0 360 10 darc
50270 49355 50320 49355 10 line
50270 49305 50320 49305 10 line
50270 49305 50295 49255 10 line
50320 49305 50295 49255 10 line
50295 49305 50295 49355 10 line
50295 49255 50295 49186 10 line
grestore
gsave
false false false false 260.000000 [(SW3 \(+\)) ] 0 50200 49400 138.888885 text
grestore
gsave
49800 48400 49950 48400 10 line
gsave
false false false false 208.000000 [(1) ] 0 49850 48450 111.111115 text
grestore
50650 48400 50800 48400 10 line
gsave
false false false false 208.000000 [(2) ] 0 50700 48450 111.111115 text
grestore
49950 48400 50125 48400 10 line
50650 48400 50475 48400 10 line
50100 48485 50500 48485 10 line
50139 48400 14 0 360 10 darc
50462 48400 14 0 360 10 darc
50270 48655 50320 48655 10 line
50270 48605 50320 48605 10 line
50270 48605 50295 48555 10 line
50320 48605 50295 48555 10 line
50295 48605 50295 48655 10 line
50295 48555 50295 48486 10 line
grestore
gsave
false false false false 260.000000 [(SW4 \(-\)) ] 0 50200 48700 138.888885 text
grestore
gsave
41300 50200 41300 50000 10 line
gsave
false true false false 208.000000 [(P) ] 270 41350 50050 111.111115 text
grestore
41300 49300 41300 49500 10 line
gsave
false false false false 208.000000 [(N) ] 270 41350 49450 111.111115 text
grestore
41500 49800 41100 49800 10 line
41300 49500 41300 49700 10 line
41300 49800 41300 50000 10 line
41300 49000 700 75 105 10 darc
41500 49911 41400 49911 10 line
41449 49860 41449 49960 10 line
grestore
gsave
false false false false 260.000000 [(C2) ] 270 41600 50000 138.888885 text
grestore
gsave
44000 50200 44000 50000 10 line
gsave
false true false false 208.000000 [(P) ] 270 44050 50050 111.111115 text
grestore
44000 49300 44000 49500 10 line
gsave
false false false false 208.000000 [(N) ] 270 44050 49450 111.111115 text
grestore
44200 49800 43800 49800 10 line
44000 49500 44000 49700 10 line
44000 49800 44000 50000 10 line
44000 49000 700 75 105 10 darc
44200 49911 44100 49911 10 line
44149 49860 44149 49960 10 line
newpath
44000 50200
30
0 360 arc
fill
newpath
44000 50200
30
0 360 arc
fill
grestore
gsave
false false false false 260.000000 [(C1) ] 270 44300 50000 138.888885 text
grestore
gsave
40700 50400 40700 50000 10 line
40700 50400 41000 50200 10 line
41000 50200 40700 50000 10 line
41000 50400 41000 50000 10 line
40400 50200 40600 50200 10 line
41300 50200 41100 50200 10 line
41100 50200 41000 50200 10 line
40700 50200 40600 50200 10 line
grestore
gsave
false false false false 260.000000 [(D1 \(1N4007\)) ] 0 40700 50500 138.888885 text
grestore
gsave
false false false false 260.000000 [(UNIVERSAL REMOTE CONTROL \(DIGITECNOLOGY\)) ] 0 50800 40900 138.888885 text
grestore
gsave
false false false false 260.000000 [(STEVEN RODRIGUEZ) ] 0 54000 40100 138.888885 text
grestore
gsave
false false false false 260.000000 [(1) ] 0 54000 40400 138.888885 text
grestore
gsave
false false false false 260.000000 [(1) ] 0 50000 40100 138.888885 text
grestore
gsave
false false false false 260.000000 [(1) ] 0 51500 40100 138.888885 text
grestore
gsave
48800 49400 48600 49500 10 line
48600 49500 48800 49600 10 line
48800 49600 48600 49700 10 line
48600 49700 48800 49800 10 line
48800 49400 48600 49300 10 line
48600 49300 48700 49250 10 line
48700 49100 48700 49250 10 line
48700 50000 48700 49848 10 line
48800 49799 48700 49850 10 line
grestore
gsave
false false false false 260.000000 [(R5) ] 270 48900 49800 138.888885 text
grestore
gsave
55700 45300 55600 45100 10 line
55600 45100 55500 45300 10 line
55500 45300 55400 45100 10 line
55400 45100 55300 45300 10 line
55700 45300 55800 45100 10 line
55800 45100 55850 45200 10 line
56000 45200 55850 45200 10 line
55100 45200 55252 45200 10 line
55301 45300 55250 45200 10 line
grestore
gsave
false false false false 260.000000 [(R18) ] 0 55300 45400 138.888885 text
grestore
gsave
53500 47400 53400 47200 10 line
53400 47200 53300 47400 10 line
53300 47400 53200 47200 10 line
53200 47200 53100 47400 10 line
53500 47400 53600 47200 10 line
53600 47200 53650 47300 10 line
53800 47300 53650 47300 10 line
52900 47300 53052 47300 10 line
53101 47400 53050 47300 10 line
grestore
gsave
false false false false 260.000000 [(R17) ] 0 53100 47500 138.888885 text
grestore
gsave
51900 44900 51700 45000 10 line
51700 45000 51900 45100 10 line
51900 45100 51700 45200 10 line
51700 45200 51900 45300 10 line
51900 44900 51700 44800 10 line
51700 44800 51800 44750 10 line
51800 44600 51800 44750 10 line
51800 45500 51800 45348 10 line
51900 45299 51800 45350 10 line
grestore
gsave
false false false false 260.000000 [(R11) ] 270 52000 45300 138.888885 text
grestore
gsave
49900 43300 49800 43100 10 line
49800 43100 49700 43300 10 line
49700 43300 49600 43100 10 line
49600 43100 49500 43300 10 line
49900 43300 50000 43100 10 line
50000 43100 50050 43200 10 line
50200 43200 50050 43200 10 line
49300 43200 49452 43200 10 line
49501 43300 49450 43200 10 line
grestore
gsave
false false false false 260.000000 [(R9) ] 0 49500 43400 138.888885 text
grestore
gsave
53900 45200 54100 45200 10 line
54800 45200 54600 45200 10 line
54300 45300 54400 45200 10 line
54400 45200 54300 45100 10 line
54300 45300 54300 45100 10 line
54400 45300 54400 45100 10 line
54400 45200 54600 45200 10 line
54300 45200 54100 45200 10 line
54330 45340 54430 45440 10 line
54430 45440 54380 45410 10 line
54430 45440 54400 45390 10 line
54400 45340 54500 45440 10 line
54500 45440 54450 45410 10 line
54500 45440 54470 45390 10 line
grestore
gsave
false false false false 260.000000 [(D6) ] 0 54700 45400 138.888885 text
grestore
gsave
53900 44700 54100 44700 10 line
54800 44700 54600 44700 10 line
54300 44800 54400 44700 10 line
54400 44700 54300 44600 10 line
54300 44800 54300 44600 10 line
54400 44800 54400 44600 10 line
54400 44700 54600 44700 10 line
54300 44700 54100 44700 10 line
54330 44840 54430 44940 10 line
54430 44940 54380 44910 10 line
54430 44940 54400 44890 10 line
54400 44840 54500 44940 10 line
54500 44940 54450 44910 10 line
54500 44940 54470 44890 10 line
grestore
gsave
false false false false 260.000000 [(D7) ] 0 54700 44900 138.888885 text
grestore
gsave
53900 44200 54100 44200 10 line
54800 44200 54600 44200 10 line
54300 44300 54400 44200 10 line
54400 44200 54300 44100 10 line
54300 44300 54300 44100 10 line
54400 44300 54400 44100 10 line
54400 44200 54600 44200 10 line
54300 44200 54100 44200 10 line
54330 44340 54430 44440 10 line
54430 44440 54380 44410 10 line
54430 44440 54400 44390 10 line
54400 44340 54500 44440 10 line
54500 44440 54450 44410 10 line
54500 44440 54470 44390 10 line
grestore
gsave
false false false false 260.000000 [(D8) ] 0 54700 44400 138.888885 text
grestore
gsave
53900 43700 54100 43700 10 line
54800 43700 54600 43700 10 line
54300 43800 54400 43700 10 line
54400 43700 54300 43600 10 line
54300 43800 54300 43600 10 line
54400 43800 54400 43600 10 line
54400 43700 54600 43700 10 line
54300 43700 54100 43700 10 line
54330 43840 54430 43940 10 line
54430 43940 54380 43910 10 line
54430 43940 54400 43890 10 line
54400 43840 54500 43940 10 line
54500 43940 54450 43910 10 line
54500 43940 54470 43890 10 line
grestore
gsave
false false false false 260.000000 [(D9) ] 0 54700 43900 138.888885 text
grestore
gsave
53900 43200 54100 43200 10 line
54800 43200 54600 43200 10 line
54300 43300 54400 43200 10 line
54400 43200 54300 43100 10 line
54300 43300 54300 43100 10 line
54400 43300 54400 43100 10 line
54400 43200 54600 43200 10 line
54300 43200 54100 43200 10 line
54330 43340 54430 43440 10 line
54430 43440 54380 43410 10 line
54430 43440 54400 43390 10 line
54400 43340 54500 43440 10 line
54500 43440 54450 43410 10 line
54500 43440 54470 43390 10 line
grestore
gsave
false false false false 260.000000 [(D10) ] 0 54700 43400 138.888885 text
grestore
gsave
53900 42700 54100 42700 10 line
54800 42700 54600 42700 10 line
54300 42800 54400 42700 10 line
54400 42700 54300 42600 10 line
54300 42800 54300 42600 10 line
54400 42800 54400 42600 10 line
54400 42700 54600 42700 10 line
54300 42700 54100 42700 10 line
54330 42840 54430 42940 10 line
54430 42940 54380 42910 10 line
54430 42940 54400 42890 10 line
54400 42840 54500 42940 10 line
54500 42940 54450 42910 10 line
54500 42940 54470 42890 10 line
grestore
gsave
false false false false 260.000000 [(D11) ] 0 54700 42900 138.888885 text
grestore
gsave
42900 49100 42900 49300 10 line
42800 49100 43000 49100 10 line
42855 49050 42945 49050 10 line
42880 49010 42920 49010 10 line
newpath
42900 49300
30
0 360 arc
fill
newpath
42900 49300
30
0 360 arc
fill
grestore
gsave
40400 50300 40400 50500 10 line
40250 50500 40550 50500 10 line
gsave
false false false false 208.000000 [(+9V) ] 0 40275 50550 111.111115 text
grestore
grestore
gsave
55700 42800 55600 42600 10 line
55600 42600 55500 42800 10 line
55500 42800 55400 42600 10 line
55400 42600 55300 42800 10 line
55700 42800 55800 42600 10 line
55800 42600 55850 42700 10 line
56000 42700 55850 42700 10 line
55100 42700 55252 42700 10 line
55301 42800 55250 42700 10 line
grestore
gsave
false false false false 260.000000 [(R23) ] 0 55300 42900 138.888885 text
grestore
gsave
55700 43800 55600 43600 10 line
55600 43600 55500 43800 10 line
55500 43800 55400 43600 10 line
55400 43600 55300 43800 10 line
55700 43800 55800 43600 10 line
55800 43600 55850 43700 10 line
56000 43700 55850 43700 10 line
55100 43700 55252 43700 10 line
55301 43800 55250 43700 10 line
grestore
gsave
false false false false 260.000000 [(R21) ] 0 55300 43900 138.888885 text
grestore
gsave
55700 44300 55600 44100 10 line
55600 44100 55500 44300 10 line
55500 44300 55400 44100 10 line
55400 44100 55300 44300 10 line
55700 44300 55800 44100 10 line
55800 44100 55850 44200 10 line
56000 44200 55850 44200 10 line
55100 44200 55252 44200 10 line
55301 44300 55250 44200 10 line
grestore
gsave
false false false false 260.000000 [(R20) ] 0 55300 44400 138.888885 text
grestore
gsave
55700 44800 55600 44600 10 line
55600 44600 55500 44800 10 line
55500 44800 55400 44600 10 line
55400 44600 55300 44800 10 line
55700 44800 55800 44600 10 line
55800 44600 55850 44700 10 line
56000 44700 55850 44700 10 line
55100 44700 55252 44700 10 line
55301 44800 55250 44700 10 line
grestore
gsave
false false false false 260.000000 [(R19) ] 0 55300 44900 138.888885 text
grestore
gsave
48400 43000 48200 43100 10 line
48200 43100 48400 43200 10 line
48400 43200 48200 43300 10 line
48200 43300 48400 43400 10 line
48400 43000 48200 42900 10 line
48200 42900 48300 42850 10 line
48300 42700 48300 42850 10 line
48300 43600 48300 43448 10 line
48400 43399 48300 43450 10 line
grestore
gsave
false false false false 260.000000 [(R7) ] 270 48500 43400 138.888885 text
grestore
gsave
48400 47800 48200 47900 10 line
48200 47900 48400 48000 10 line
48400 48000 48200 48100 10 line
48200 48100 48400 48200 10 line
48400 47800 48200 47700 10 line
48200 47700 48300 47650 10 line
48300 47500 48300 47650 10 line
48300 48400 48300 48248 10 line
48400 48199 48300 48250 10 line
grestore
gsave
false false false false 260.000000 [(R4) ] 270 48500 48200 138.888885 text
grestore
gsave
48900 43000 48700 43100 10 line
48700 43100 48900 43200 10 line
48900 43200 48700 43300 10 line
48700 43300 48900 43400 10 line
48900 43000 48700 42900 10 line
48700 42900 48800 42850 10 line
48800 42700 48800 42850 10 line
48800 43600 48800 43448 10 line
48900 43399 48800 43450 10 line
grestore
gsave
false false false false 260.000000 [(R8) ] 270 49000 43400 138.888885 text
grestore
gsave
55700 43300 55600 43100 10 line
55600 43100 55500 43300 10 line
55500 43300 55400 43100 10 line
55400 43100 55300 43300 10 line
55700 43300 55800 43100 10 line
55800 43100 55850 43200 10 line
56000 43200 55850 43200 10 line
55100 43200 55252 43200 10 line
55301 43300 55250 43200 10 line
grestore
gsave
false false false false 260.000000 [(R22) ] 0 55300 43400 138.888885 text
grestore
gsave
52700 48800 52600 48600 10 line
52600 48600 52500 48800 10 line
52500 48800 52400 48600 10 line
52400 48600 52300 48800 10 line
52700 48800 52800 48600 10 line
52800 48600 52850 48700 10 line
53000 48700 52850 48700 10 line
52100 48700 52252 48700 10 line
52301 48800 52250 48700 10 line
grestore
gsave
false false false false 260.000000 [(R13) ] 0 52300 48900 138.888885 text
grestore
gsave
52700 49300 52600 49100 10 line
52600 49100 52500 49300 10 line
52500 49300 52400 49100 10 line
52400 49100 52300 49300 10 line
52700 49300 52800 49100 10 line
52800 49100 52850 49200 10 line
53000 49200 52850 49200 10 line
52100 49200 52252 49200 10 line
52301 49300 52250 49200 10 line
grestore
gsave
false false false false 260.000000 [(R12) ] 0 52300 49400 138.888885 text
grestore
gsave
51600 45800 51400 45900 10 line
51400 45900 51600 46000 10 line
51600 46000 51400 46100 10 line
51400 46100 51600 46200 10 line
51600 45800 51400 45700 10 line
51400 45700 51500 45650 10 line
51500 45500 51500 45650 10 line
51500 46400 51500 46248 10 line
51600 46199 51500 46250 10 line
grestore
gsave
false false false false 260.000000 [(R10) ] 270 51700 46200 138.888885 text
grestore
gsave
47700 49400 47500 49500 10 line
47500 49500 47700 49600 10 line
47700 49600 47500 49700 10 line
47500 49700 47700 49800 10 line
47700 49400 47500 49300 10 line
47500 49300 47600 49250 10 line
47600 49100 47600 49250 10 line
47600 50000 47600 49848 10 line
47700 49799 47600 49850 10 line
grestore
gsave
false false false false 260.000000 [(R3) ] 270 47800 49800 138.888885 text
grestore
gsave
49400 49400 49200 49500 10 line
49200 49500 49400 49600 10 line
49400 49600 49200 49700 10 line
49200 49700 49400 49800 10 line
49400 49400 49200 49300 10 line
49200 49300 49300 49250 10 line
49300 49100 49300 49250 10 line
49300 50000 49300 49848 10 line
49400 49799 49300 49850 10 line
grestore
gsave
false false false false 260.000000 [(R6) ] 270 49500 49800 138.888885 text
grestore
gsave
47000 49400 46800 49500 10 line
46800 49500 47000 49600 10 line
47000 49600 46800 49700 10 line
46800 49700 47000 49800 10 line
47000 49400 46800 49300 10 line
46800 49300 46900 49250 10 line
46900 49100 46900 49250 10 line
46900 50000 46900 49848 10 line
47000 49799 46900 49850 10 line
grestore
gsave
false false false false 260.000000 [(R2) ] 270 47100 49800 138.888885 text
grestore
gsave
52500 47400 52400 47200 10 line
52400 47200 52300 47400 10 line
52300 47400 52200 47200 10 line
52200 47200 52100 47400 10 line
52500 47400 52600 47200 10 line
52600 47200 52650 47300 10 line
52800 47300 52650 47300 10 line
51900 47300 52052 47300 10 line
52101 47400 52050 47300 10 line
newpath
52800 47300
30
0 360 arc
fill
newpath
52800 47300
30
0 360 arc
fill
newpath
51900 47300
30
0 360 arc
fill
newpath
51900 47300
30
0 360 arc
fill
grestore
gsave
false false false false 260.000000 [(R15) ] 0 52100 47500 138.888885 text
grestore
gsave
52500 46900 52400 46700 10 line
52400 46700 52300 46900 10 line
52300 46900 52200 46700 10 line
52200 46700 52100 46900 10 line
52500 46900 52600 46700 10 line
52600 46700 52650 46800 10 line
52800 46800 52650 46800 10 line
51900 46800 52052 46800 10 line
52101 46900 52050 46800 10 line
grestore
gsave
false false false false 260.000000 [(R16) ] 0 52100 47000 138.888885 text
grestore
53700 42500 55000 42500 10 line
55000 42500 55000 45600 10 line
55000 45600 53700 45600 10 line
53700 45600 53700 42500 10 line
gsave
false false false false 260.000000 [(MCB206) ] 0 53900 45700 138.888885 text
grestore
gsave
44500 46300 44500 46500 10 line
44400 46300 44600 46300 10 line
44455 46250 44545 46250 10 line
44480 46210 44520 46210 10 line
grestore
40400 50300 40400 50200 10 line
41300 50200 42100 50200 10 line
41300 49300 44000 49300 10 line
42900 49600 42900 49300 10 line
gsave
49600 43900 49600 44100 10 line
49500 43900 49700 43900 10 line
49555 43850 49645 43850 10 line
49580 43810 49620 43810 10 line
grestore
49600 50200 49600 47300 10 line
49600 44100 49600 44600 10 line
gsave
46900 45700 46900 45900 10 line
46800 45700 47000 45700 10 line
46855 45650 46945 45650 10 line
46880 45610 46920 45610 10 line
grestore
46900 50000 46900 50200 10 line
46900 49100 46900 47300 10 line
46900 46300 46900 45900 10 line
46900 47300 48400 47300 10 line
gsave
48300 48500 48300 48700 10 line
48300 49400 48300 49200 10 line
48200 48900 48300 49000 10 line
48300 49000 48400 48900 10 line
48200 48900 48400 48900 10 line
48200 49000 48400 49000 10 line
48300 49000 48300 49200 10 line
48300 48900 48300 48700 10 line
48160 48930 48060 49030 10 line
48060 49030 48090 48980 10 line
48060 49030 48110 49000 10 line
48160 49000 48060 49100 10 line
48060 49100 48090 49050 10 line
48060 49100 48110 49070 10 line
grestore
gsave
false false false false 260.000000 [(D3 \(ON/OFF\)) ] 90 48100 49300 138.888885 text
grestore
gsave
48300 49700 48300 49500 10 line
48400 49700 48200 49700 10 line
48345 49750 48255 49750 10 line
48320 49790 48280 49790 10 line
grestore
48300 48400 48300 48500 10 line
48300 49400 48300 49500 10 line
gsave
47600 42400 47600 42600 10 line
47500 42400 47700 42400 10 line
47555 42350 47645 42350 10 line
47580 42310 47620 42310 10 line
grestore
47600 50000 47600 50200 10 line
47600 49100 47600 43800 10 line
47600 42800 47600 42600 10 line
47600 43800 49000 43800 10 line
49000 43800 49000 44600 10 line
gsave
56300 42700 56100 42700 10 line
56300 42600 56300 42800 10 line
56350 42655 56350 42745 10 line
56390 42680 56390 42720 10 line
grestore
gsave
56300 43200 56100 43200 10 line
56300 43100 56300 43300 10 line
56350 43155 56350 43245 10 line
56390 43180 56390 43220 10 line
grestore
gsave
56300 43700 56100 43700 10 line
56300 43600 56300 43800 10 line
56350 43655 56350 43745 10 line
56390 43680 56390 43720 10 line
grestore
gsave
56300 44200 56100 44200 10 line
56300 44100 56300 44300 10 line
56350 44155 56350 44245 10 line
56390 44180 56390 44220 10 line
grestore
gsave
56300 44700 56100 44700 10 line
56300 44600 56300 44800 10 line
56350 44655 56350 44745 10 line
56390 44680 56390 44720 10 line
grestore
gsave
56300 45200 56100 45200 10 line
56300 45100 56300 45300 10 line
56350 45155 56350 45245 10 line
56390 45180 56390 45220 10 line
grestore
54800 42700 55100 42700 10 line
54800 43200 55100 43200 10 line
54800 43700 55100 43700 10 line
54800 44200 55100 44200 10 line
54800 44700 55100 44700 10 line
54800 45200 55100 45200 10 line
56000 45200 56100 45200 10 line
56000 44700 56100 44700 10 line
56000 44200 56100 44200 10 line
56000 43700 56100 43700 10 line
56000 43200 56100 43200 10 line
56000 42700 56100 42700 10 line
gsave
48800 41400 48800 41600 10 line
48700 41400 48900 41400 10 line
48755 41350 48845 41350 10 line
48780 41310 48820 41310 10 line
grestore
gsave
48300 41400 48300 41600 10 line
48200 41400 48400 41400 10 line
48255 41350 48345 41350 10 line
48280 41310 48320 41310 10 line
grestore
51500 46400 51500 50200 10 line
49300 44600 49300 43200 10 line
50200 43200 51500 43200 10 line
gsave
51500 41800 51500 42000 10 line
51400 41800 51600 41800 10 line
51455 41750 51545 41750 10 line
51480 41710 51520 41710 10 line
grestore
gsave
44500 50100 44500 49900 10 line
44500 49200 44500 49400 10 line
44600 49700 44500 49600 10 line
44500 49600 44400 49700 10 line
44600 49700 44400 49700 10 line
44600 49600 44400 49600 10 line
44500 49600 44500 49400 10 line
44500 49700 44500 49900 10 line
44640 49670 44740 49570 10 line
44740 49570 44710 49620 10 line
44740 49570 44690 49600 10 line
44640 49600 44740 49500 10 line
44740 49500 44710 49550 10 line
44740 49500 44690 49530 10 line
grestore
gsave
false false false false 260.000000 [(D2 \(POWER\)) ] 270 44700 49300 138.888885 text
grestore
gsave
44600 47500 44400 47600 10 line
44400 47600 44600 47700 10 line
44600 47700 44400 47800 10 line
44400 47800 44600 47900 10 line
44600 47500 44400 47400 10 line
44400 47400 44500 47350 10 line
44500 47200 44500 47350 10 line
44500 48100 44500 47948 10 line
44600 47899 44500 47950 10 line
grestore
gsave
false false false false 260.000000 [(R1) ] 270 44700 47900 138.888885 text
grestore
44500 50100 44500 50200 10 line
44500 49200 44500 48100 10 line
44500 47200 44500 46500 10 line
48400 44600 48300 44600 10 line
48300 44600 48300 43600 10 line
48700 44600 48800 44600 10 line
48800 44600 48800 43600 10 line
48300 42700 48300 42600 10 line
48800 42700 48800 42600 10 line
48800 41700 48800 41600 10 line
48300 41700 48300 41600 10 line
50800 44600 51800 44600 10 line
gsave
53200 48900 53500 48900 10 line
gsave
false false false false 208.000000 [(C) ] 90 53400 49000 111.111115 text
grestore
54100 48900 54400 48900 10 line
gsave
false false false false 208.000000 [(E) ] 90 54300 49000 111.111115 text
grestore
53799 48800 300 0 360 10 darc
54100 48900 53900 48700 10 line
53500 48900 53700 48700 10 line
53600 48700 54000 48700 10 line
53800 48200 53800 48484 10 line
gsave
false false false false 208.000000 [(B) ] 90 54000 48300 111.111115 text
grestore
53800 48700 53800 48484 10 line
54100 48900 54028 48864 10 line
54100 48900 54064 48828 10 line
54064 48828 54028 48864 10 line
gsave
false false false false 260.000000 [(BC547) ] 90 54000 49200 138.888885 text
grestore
grestore
gsave
false true false true 260.000000 [(Q1) ] 270 53800 49200 138.888885 text
grestore
52100 49200 52100 48700 10 line
53000 49200 53000 48700 10 line
53000 48900 53200 48900 10 line
gsave
55700 48900 55500 48900 10 line
55700 48800 55700 49000 10 line
55750 48855 55750 48945 10 line
55790 48880 55790 48920 10 line
grestore
54400 48900 54500 48900 10 line
55400 48900 55500 48900 10 line
gsave
52500 47900 52400 47700 10 line
52400 47700 52300 47900 10 line
52300 47900 52200 47700 10 line
52200 47700 52100 47900 10 line
52500 47900 52600 47700 10 line
52600 47700 52650 47800 10 line
52800 47800 52650 47800 10 line
51900 47800 52052 47800 10 line
52101 47900 52050 47800 10 line
grestore
gsave
false false false false 260.000000 [(R14) ] 0 52100 48000 138.888885 text
grestore
53800 48200 53800 47300 10 line
52800 47800 52800 46800 10 line
52800 47300 52900 47300 10 line
51900 47800 51900 46800 10 line
50800 47300 51900 47300 10 line
gsave
51100 49100 50900 49100 10 line
51100 49000 51100 49200 10 line
51150 49055 51150 49145 10 line
51190 49080 51190 49120 10 line
grestore
gsave
51100 48400 50900 48400 10 line
51100 48300 51100 48500 10 line
51150 48355 51150 48445 10 line
51190 48380 51190 48420 10 line
grestore
48700 50000 48700 50200 10 line
49300 50000 49300 50200 10 line
49300 49100 49300 47300 10 line
48700 49100 49000 49100 10 line
49000 49100 49000 47300 10 line
49800 48400 49000 48400 10 line
49800 49100 49300 49100 10 line
50800 49100 50900 49100 10 line
50800 48400 50900 48400 10 line
51800 45500 51700 45500 10 line
51700 45500 51700 48900 10 line
51700 48900 52100 48900 10 line
48300 47500 48700 47500 10 line
48700 47500 48700 47300 10 line
gsave
49900 43960 49900 44300 10 line
49900 43860 100 0 360 10 darc
grestore
gsave
false true false false 260.000000 [(T1) ] 90 49950 43650 138.888885 text
grestore
gsave
50200 43960 50200 44300 10 line
50200 43860 100 0 360 10 darc
grestore
gsave
false true false false 260.000000 [(T2) ] 90 50250 43650 138.888885 text
grestore
gsave
50500 43960 50500 44300 10 line
50500 43860 100 0 360 10 darc
grestore
gsave
false true false false 260.000000 [(T3) ] 90 50550 43650 138.888885 text
grestore
gsave
49900 47740 49900 47400 10 line
49900 47840 100 0 360 10 darc
grestore
gsave
false true false false 260.000000 [(T4) ] 270 49850 48050 138.888885 text
grestore
gsave
50200 47740 50200 47400 10 line
50200 47840 100 0 360 10 darc
grestore
gsave
false true false false 260.000000 [(T5) ] 270 50150 48050 138.888885 text
grestore
gsave
50500 47740 50500 47400 10 line
50500 47840 100 0 360 10 darc
grestore
gsave
false true false false 260.000000 [(T6) ] 270 50450 48050 138.888885 text
grestore
gsave
53160 45200 53500 45200 10 line
53060 45200 100 0 360 10 darc
grestore
gsave
false true false false 260.000000 [(T1) ] 0 52850 45150 138.888885 text
grestore
gsave
53160 44700 53500 44700 10 line
53060 44700 100 0 360 10 darc
grestore
gsave
false true false false 260.000000 [(T2) ] 0 52850 44650 138.888885 text
grestore
gsave
53160 44200 53500 44200 10 line
53060 44200 100 0 360 10 darc
grestore
gsave
false true false false 260.000000 [(T3) ] 0 52850 44150 138.888885 text
grestore
gsave
53160 43700 53500 43700 10 line
53060 43700 100 0 360 10 darc
grestore
gsave
false true false false 260.000000 [(T4) ] 0 52850 43650 138.888885 text
grestore
gsave
53160 43200 53500 43200 10 line
53060 43200 100 0 360 10 darc
grestore
gsave
false true false false 260.000000 [(T5) ] 0 52850 43150 138.888885 text
grestore
53500 45200 53900 45200 10 line
gsave
53160 42700 53500 42700 10 line
53060 42700 100 0 360 10 darc
grestore
gsave
false true false false 260.000000 [(T6) ] 0 52850 42650 138.888885 text
grestore
53500 44700 53900 44700 10 line
53500 44200 53900 44200 10 line
53500 43700 53900 43700 10 line
53500 43200 53900 43200 10 line
53500 42700 53900 42700 10 line
49900 44300 49900 44600 10 line
50200 44300 50200 44600 10 line
50500 44300 50500 44600 10 line
49900 47300 49900 47400 10 line
50200 47300 50200 47400 10 line
50500 47300 50500 47400 10 line
43700 50200 51500 50200 10 line
40300 40700 45500 40700 10 line
45500 40700 45500 45700 10 line
45500 45700 40300 45700 10 line
40300 45700 40300 40700 10 line
gsave
false false false false 260.000000 [(COMPONENTS:) ] 0 40500 45300 138.888885 text
grestore
gsave
false false false false 260.000000 [(D1 = 1N4007) ] 0 40800 44300 138.888885 text
grestore
gsave
false false false false 260.000000 [(C2 = 100uF 50V \(ELECTROLITIC\)) ] 0 40800 44600 138.888885 text
grestore
gsave
false false false false 260.000000 [(C1 = 10uF 25V \(ELECTROLITIC\)) ] 0 40800 44900 138.888885 text
grestore
gsave
false false false false 260.000000 [(D2 = YELLOW LED 5mm) ] 0 40800 44000 138.888885 text
grestore
gsave
false false false false 260.000000 [(D3 = RED LED 5mm) ] 0 40800 43700 138.888885 text
grestore
gsave
false false false false 260.000000 [(D4, D5 = GREEN LED 3mm) ] 0 40800 43400 138.888885 text
grestore
gsave
false false false false 260.000000 [(D6 - D11 = MCB206 LED MODULE \(KINGBRIGHT\)) ] 0 40800 43100 138.888885 text
grestore
gsave
false false false false 260.000000 [(R1, R12, R13 = 330 ohm) ] 0 40800 42500 138.888885 text
grestore
gsave
false false false false 260.000000 [(R2, R3, R5, R6, R10 = 10 Kohm) ] 0 40800 42200 138.888885 text
grestore
gsave
false false false false 260.000000 [(R4, R7, R8, R18 - R23 = 1 Kohm) ] 0 40800 41900 138.888885 text
grestore
gsave
false false false false 260.000000 [(R11 = 10 ohm) ] 0 40800 41600 138.888885 text
grestore
gsave
false false false false 260.000000 [(R9 = 100 ohm) ] 0 40800 41300 138.888885 text
grestore
gsave
false false false false 260.000000 [(R14 - R17 = 50 Kohm) ] 0 40800 41000 138.888885 text
grestore
gsave
false false false false 260.000000 [(D12 = INFRARED LED 5mm) ] 0 40800 42800 138.888885 text
grestore
gsave
51500 43200 51500 43050 10 line
gsave
false false false false 208.000000 [(1) ] 270 51550 43150 111.111115 text
grestore
51500 42350 51500 42200 10 line
gsave
false false false false 208.000000 [(2) ] 270 51550 42300 111.111115 text
grestore
51500 43050 51500 42875 10 line
51500 42350 51500 42525 10 line
51585 42900 51585 42500 10 line
51500 42861 14 0 360 10 darc
51500 42538 14 0 360 10 darc
51755 42730 51755 42680 10 line
51705 42730 51705 42680 10 line
51705 42730 51655 42705 10 line
51705 42680 51655 42705 10 line
51705 42705 51755 42705 10 line
51655 42705 51586 42705 10 line
grestore
gsave
false false false false 260.000000 [(SW1 \(RESET\)) ] 270 51800 42800 138.888885 text
grestore
51500 43200 51500 45500 10 line
51500 42200 51500 42000 10 line
newpath
44000 50200
30
0 360 arc
fill
newpath
44000 50200
30
0 360 arc
fill
newpath
42900 49300
30
0 360 arc
fill
newpath
42900 49300
30
0 360 arc
fill
newpath
52800 47300
30
0 360 arc
fill
newpath
52800 47300
30
0 360 arc
fill
newpath
51900 47300
30
0 360 arc
fill
newpath
51900 47300
30
0 360 arc
fill
newpath
41300 50200
30
0 360 arc
fill
newpath
42900 49300
30
0 360 arc
fill
newpath
42900 49300
30
0 360 arc
fill
newpath
42900 49300
30
0 360 arc
fill
newpath
42900 49300
30
0 360 arc
fill
newpath
49600 50200
30
0 360 arc
fill
newpath
49600 50200
30
0 360 arc
fill
newpath
46900 50200
30
0 360 arc
fill
newpath
46900 50200
30
0 360 arc
fill
newpath
46900 47300
30
0 360 arc
fill
newpath
46900 47300
30
0 360 arc
fill
newpath
47600 50200
30
0 360 arc
fill
newpath
47600 50200
30
0 360 arc
fill
newpath
47600 43800
30
0 360 arc
fill
newpath
47600 43800
30
0 360 arc
fill
newpath
51500 43200
30
0 360 arc
fill
newpath
44500 50200
30
0 360 arc
fill
newpath
44500 50200
30
0 360 arc
fill
newpath
52100 48900
30
0 360 arc
fill
newpath
53000 48900
30
0 360 arc
fill
newpath
53000 48900
30
0 360 arc
fill
newpath
53000 48900
30
0 360 arc
fill
newpath
52800 47300
30
0 360 arc
fill
newpath
52800 47300
30
0 360 arc
fill
newpath
52800 47300
30
0 360 arc
fill
newpath
52800 47300
30
0 360 arc
fill
newpath
51900 47300
30
0 360 arc
fill
newpath
51900 47300
30
0 360 arc
fill
newpath
51900 47300
30
0 360 arc
fill
newpath
51900 47300
30
0 360 arc
fill
newpath
48700 50200
30
0 360 arc
fill
newpath
48700 50200
30
0 360 arc
fill
newpath
49300 50200
30
0 360 arc
fill
newpath
49300 50200
30
0 360 arc
fill
newpath
49300 49100
30
0 360 arc
fill
newpath
49000 48400
30
0 360 arc
fill
newpath
49000 48400
30
0 360 arc
fill
newpath
49000 48400
30
0 360 arc
fill
newpath
49300 49100
30
0 360 arc
fill
newpath
52100 48900
30
0 360 arc
fill
newpath
52100 48900
30
0 360 arc
fill
newpath
44000 50200
30
0 360 arc
fill
newpath
46900 50200
30
0 360 arc
fill
newpath
47600 50200
30
0 360 arc
fill
newpath
44500 50200
30
0 360 arc
fill
newpath
49600 50200
30
0 360 arc
fill
newpath
48700 50200
30
0 360 arc
fill
newpath
49300 50200
30
0 360 arc
fill
newpath
51500 43200
30
0 360 arc
fill
showpage
%%End
